Tutorial: Data as Objects — Data explorations
…
They are again stored in a column called coef that holds a data frame in each cell. If you want to then finally just get a data.frame with coefficients, you can unnest the results:

dat  <- dat  %>% 
        unnest(coef)

print(dat)

# A tibble: 34 × 5
# Groups:   x1 [17]
      x1 data              model_fit name           beta
   <dbl> <list>            <list>    <chr>         <dbl>
 1  -4   <tibble [17 × 3]> <lm>      (Intercept) -0.0266
 2  -4   <tibble [17 × 3]> <lm>      x2           0.103 
 3  -3.5 <tibble [17 × 3]> <lm>      (Intercept)  0.0336
 4  -3.5 <tibble [17 × 3]> <lm>      x2           0.0900
 5  -3   <tibble [17 × 3]> <lm>      (Intercept)  0.103 
 6  -3   <tibble [17 × 3]> <lm>      x2           0.104 
 7  -2.5 <tibble [17 × 3]> <lm>      (Intercept)  0.0975
 8  -2.5 <tibble [17 × 3]> <lm>      x2           0.0883
 9  -2   <tibble [17 × 3]> <lm>      (Intercept)  0.0941
10  -2   <tibble [17 × 3]> <lm>      x2           0.0944
# … with 24 more rows
…
