Tutorial: Data cleansing — Data explorations
…
They are again stored in a column called coef. If you want to then finally just get a data.frame with coefficients, you can unnest the results:

dat  %>% 
    group_by(x1)  %>% 
    nest()  %>% 
    mutate(model_fit = map(data, function(data) lm(y_obs ~ x2, data=data)),
           coef = map(model_fit, function(fit) data.frame(name=names(fit$coefficients), beta=fit$coefficients))) %>%
    unnest(coef) %>%
    print()

# A tibble: 34 x 5
# Groups:   x1 [17]
      x1 data              model_fit name          beta
   <dbl> <list>            <list>    <chr>        <dbl>
 1  -4   <tibble [17 × 3]> <lm>      (Intercept) 0.0333
 2  -4   <tibble [17 × 3]> <lm>      x2          0.0868
 3  -3.5 <tibble [17 × 3]> <lm>      (Intercept) 0.0219
 4  -3.5 <tibble [17 × 3]> <lm>      x2          0.0974
 5  -3   <tibble [17 × 3]> <lm>      (Intercept) 0.0599
 6  -3   <tibble [17 × 3]> <lm>      x2          0.0887
 7  -2.5 <tibble [17 × 3]> <lm>      (Intercept) 0.0332
 8  -2.5 <tibble [17 × 3]> <lm>      x2          0.103 
 9  -2   <tibble [17 × 3]> <lm>      (Intercept) 0.121 
10  -2   <tibble [17 × 3]> <lm>      x2          0.109 
# … with 24 more rows
…
